%YAML 1.1
%TAG !u! tag:unity3d.com,2011:
--- !u!74 &7400000
AnimationClip:
  m_ObjectHideFlags: 0
  m_PrefabParentObject: {fileID: 0}
  m_PrefabInternal: {fileID: 0}
  m_Name: cat_walk
  serializedVersion: 6
  m_Legacy: 0
  m_Compressed: 0
  m_UseHighQualityCurve: 1
  m_RotationCurves: []
  m_CompressedRotationCurves: []
  m_EulerCurves: []
  m_PositionCurves: []
  m_ScaleCurves: []
  m_FloatCurves: []
  m_PPtrCurves:
  - curve:
    - time: 0
      value: {fileID: 21300000, guid: 09d96eda16268c24dbe145f82e14dc49, type: 3}
    - time: 0.083333336
      value: {fileID: 21300000, guid: 732b4849cc15cc64ebee7b7f39bc15a8, type: 3}
    - time: 0.16666667
      value: {fileID: 21300000, guid: d346d19a064bc014499995007090d7d6, type: 3}
    - time: 0.25
      value: {fileID: 21300000, guid: 7632e356016a7cd45a356fa9f9722c95, type: 3}
    - time: 0.33333334
      value: {fileID: 21300000, guid: f649040879e7f4c46898eb2c5e86935b, type: 3}
    - time: 0.41666666
      value: {fileID: 21300000, guid: ee746a1740c8bdc4695871da8cd651f0, type: 3}
    - time: 0.5
      value: {fileID: 21300000, guid: 6ee1fd832dff2fd4996c60fb2dfa4d37, type: 3}
    - time: 0.5833333
      value: {fileID: 21300000, guid: 8f608c7703ed4b344a821d9989df5aa9, type: 3}
    - time: 0.6666667
      value: {fileID: 21300000, guid: ab96faf24f4c2744985181856523efc6, type: 3}
    - time: 0.75
      value: {fileID: 21300000, guid: 0c1ffdf9e93924b40b6f3681b60eda72, type: 3}
    - time: 0.8333333
      value: {fileID: 21300000, guid: bd0efaa52c026bd48ae22bcbe1be2e61, type: 3}
    - time: 0.9166667
      value: {fileID: 21300000, guid: 51bd767ea1e0f004d9b53190eae39105, type: 3}
    - time: 1
      value: {fileID: 21300000, guid: fb6f1d7ecf7a5b04590463ddaecdcb6a, type: 3}
    - time: 1.0833334
      value: {fileID: 21300000, guid: f72ed43b4d4590647b66267d60a456b4, type: 3}
    - time: 1.1666666
      value: {fileID: 21300000, guid: b9cd9ae12024a59468cb7bc5519fee58, type: 3}
    - time: 1.25
      value: {fileID: 21300000, guid: d0d9af878c1c3fc449aeae828f7889e3, type: 3}
    - time: 1.3333334
      value: {fileID: 21300000, guid: 02c973d9b2871d646966f271a921896e, type: 3}
    - time: 1.4166666
      value: {fileID: 21300000, guid: f4d8aa9f14139fd44b1d535fbba070ae, type: 3}
    - time: 1.5
      value: {fileID: 21300000, guid: 3215d9be55136dd43a6741f334c838d8, type: 3}
    - time: 1.5833334
      value: {fileID: 21300000, guid: 554d2ea21b5a7624b9777b6db09154f6, type: 3}
    - time: 1.6666666
      value: {fileID: 21300000, guid: 5cbd426f00b51d343834942e41d3e873, type: 3}
    - time: 1.75
      value: {fileID: 21300000, guid: 1d45802c541bdfb40983a356a8d793bd, type: 3}
    attribute: m_Sprite
    path: 
    classID: 212
    script: {fileID: 0}
  m_SampleRate: 12
  m_WrapMode: 0
  m_Bounds:
    m_Center: {x: 0, y: 0, z: 0}
    m_Extent: {x: 0, y: 0, z: 0}
  m_ClipBindingConstant:
    genericBindings:
    - serializedVersion: 2
      path: 0
      attribute: 0
      script: {fileID: 0}
      typeID: 212
      customType: 23
      isPPtrCurve: 1
    pptrCurveMapping:
    - {fileID: 21300000, guid: 09d96eda16268c24dbe145f82e14dc49, type: 3}
    - {fileID: 21300000, guid: 732b4849cc15cc64ebee7b7f39bc15a8, type: 3}
    - {fileID: 21300000, guid: d346d19a064bc014499995007090d7d6, type: 3}
    - {fileID: 21300000, guid: 7632e356016a7cd45a356fa9f9722c95, type: 3}
    - {fileID: 21300000, guid: f649040879e7f4c46898eb2c5e86935b, type: 3}
    - {fileID: 21300000, guid: ee746a1740c8bdc4695871da8cd651f0, type: 3}
    - {fileID: 21300000, guid: 6ee1fd832dff2fd4996c60fb2dfa4d37, type: 3}
    - {fileID: 21300000, guid: 8f608c7703ed4b344a821d9989df5aa9, type: 3}
    - {fileID: 21300000, guid: ab96faf24f4c2744985181856523efc6, type: 3}
    - {fileID: 21300000, guid: 0c1ffdf9e93924b40b6f3681b60eda72, type: 3}
    - {fileID: 21300000, guid: bd0efaa52c026bd48ae22bcbe1be2e61, type: 3}
    - {fileID: 21300000, guid: 51bd767ea1e0f004d9b53190eae39105, type: 3}
    - {fileID: 21300000, guid: fb6f1d7ecf7a5b04590463ddaecdcb6a, type: 3}
    - {fileID: 21300000, guid: f72ed43b4d4590647b66267d60a456b4, type: 3}
    - {fileID: 21300000, guid: b9cd9ae12024a59468cb7bc5519fee58, type: 3}
    - {fileID: 21300000, guid: d0d9af878c1c3fc449aeae828f7889e3, type: 3}
    - {fileID: 21300000, guid: 02c973d9b2871d646966f271a921896e, type: 3}
    - {fileID: 21300000, guid: f4d8aa9f14139fd44b1d535fbba070ae, type: 3}
    - {fileID: 21300000, guid: 3215d9be55136dd43a6741f334c838d8, type: 3}
    - {fileID: 21300000, guid: 554d2ea21b5a7624b9777b6db09154f6, type: 3}
    - {fileID: 21300000, guid: 5cbd426f00b51d343834942e41d3e873, type: 3}
    - {fileID: 21300000, guid: 1d45802c541bdfb40983a356a8d793bd, type: 3}
  m_AnimationClipSettings:
    serializedVersion: 2
    m_AdditiveReferencePoseClip: {fileID: 0}
    m_AdditiveReferencePoseTime: 0
    m_StartTime: 0
    m_StopTime: 1.8333334
    m_OrientationOffsetY: 0
    m_Level: 0
    m_CycleOffset: 0
    m_HasAdditiveReferencePose: 0
    m_LoopTime: 1
    m_LoopBlend: 0
    m_LoopBlendOrientation: 0
    m_LoopBlendPositionY: 0
    m_LoopBlendPositionXZ: 0
    m_KeepOriginalOrientation: 0
    m_KeepOriginalPositionY: 1
    m_KeepOriginalPositionXZ: 0
    m_HeightFromFeet: 0
    m_Mirror: 0
  m_EditorCurves: []
  m_EulerEditorCurves: []
  m_HasGenericRootTransform: 0
  m_HasMotionFloatCurves: 0
  m_GenerateMotionCurves: 0
  m_Events: []
