%YAML 1.1
%TAG !u! tag:unity3d.com,2011:
--- !u!1045 &1
EditorBuildSettings:
  m_ObjectHideFlags: 0
  serializedVersion: 2
  m_Scenes:
  - enabled: 0
    path: 
    guid: 00000000000000000000000000000000
  - enabled: 1
    path: Assets/Scenes/Levels/GameStart.unity
    guid: 9464b02385f35244cb9648aba6541839
  - enabled: 1
    path: Assets/Scenes/Levels/Level_01.unity
    guid: 348d1b500e8f709429c02bc18b24ed21
  - enabled: 1
    path: Assets/Scenes/Levels/CatWin.unity
    guid: ebbd498f7f1af124882b3e0a6888cff7
  - enabled: 1
    path: Assets/Scenes/Levels/DogWin.unity
    guid: 4c97c91c32f10064bad2185462f0c8f2
  m_configObjects: {}
